{
  "project_info": {
    "project_number": "799173023675",
    "firebase_url": "https://imthecaptainnow-77552.firebaseio.com",
    "project_id": "imthecaptainnow-77552",
    "storage_bucket": "imthecaptainnow-77552.appspot.com"
  },
  "client": [
    {
      "client_info": {
        "mobilesdk_app_id": "1:799173023675:android:92b5f5124706d7b5",
        "android_client_info": {
          "package_name": "com.frio.imthecaptainnow"
        }
      },
      "oauth_client": [
        {
          "client_id": "799173023675-vurrcad9qh4ud4p73s1f1m9uk4jjtu1l.apps.googleusercontent.com",
          "client_type": 1,
          "android_info": {
            "package_name": "com.frio.imthecaptainnow",
            "certificate_hash": "a3b3b928ac68e4bec24ef348991498d7d4b60b0e"
          }
        },
        {
          "client_id": "799173023675-thpfjnueabecfvglgs9t5otcdrhflv4v.apps.googleusercontent.com",
          "client_type": 3
        }
      ],
      "api_key": [
        {
          "current_key": "AIzaSyDk726seiS2gQ7NGbUEdH1XhA5doPt_nTk"
        }
      ],
      "services": {
        "analytics_service": {
          "status": 1
        },
        "appinvite_service": {
          "status": 2,
          "other_platform_oauth_client": [
            {
              "client_id": "799173023675-thpfjnueabecfvglgs9t5otcdrhflv4v.apps.googleusercontent.com",
              "client_type": 3
            }
          ]
        },
        "ads_service": {
          "status": 2
        }
      }
    }
  ],
  "configuration_version": "1"
}